Corrected Covered Area (CCA) • junoR
…
# Example dataset
data <- tibble(
  study = rep(paste0("Study_", 1:5), times = 5),
  review = rep(paste0("Review_", 1:5), each = 5),
  status = c("included", "included", "ineligible", NA, NA, 
             NA, "included", NA, "excluded", NA, 
             "included", NA, "included", "excluded", "ineligible", 
             "included", "excluded", "included", "excluded", NA, 
             NA, "included", "ineligible", NA, "excluded")
)

# View the data
print(data)

## # A tibble: 25 × 3
##    study   review   status    
##    <chr>   <chr>    <chr>     
##  1 Study_1 Review_1 included  
##  2 Study_2 Review_1 included  
##  3 Study_3 Review_1 ineligible
##  4 Study_4 Review_1 NA        
##  5 Study_5 Review_1 NA        
##  6 Study_1 Review_2 NA        
##  7 Study_2 Review_2 included  
##  8 Study_3 Review_2 NA        
##  9 Study_4 Review_2 excluded  
## 10 Study_5 Review_2 NA        
## # ℹ 15 more rows
…
